<?xml version="1.0" encoding="UTF-8" standalone="no"?>
<!-- Created with Inkscape (http://www.inkscape.org/) -->

<svg
   xmlns:dc="http://purl.org/dc/elements/1.1/"
   xmlns:cc="http://creativecommons.org/ns#"
   xmlns:rdf="http://www.w3.org/1999/02/22-rdf-syntax-ns#"
   xmlns:svg="http://www.w3.org/2000/svg"
   xmlns="http://www.w3.org/2000/svg"
   xmlns:sodipodi="http://sodipodi.sourceforge.net/DTD/sodipodi-0.dtd"
   xmlns:inkscape="http://www.inkscape.org/namespaces/inkscape"
   width="58.442436mm"
   height="46.662365mm"
   viewBox="0 0 58.442436 46.662365"
   version="1.1"
   id="svg1448"
   inkscape:version="0.92.4 (5da689c313, 2019-01-14)"
   sodipodi:docname="fkag_black-transparent-background.svg">
  <defs
     id="defs1442" />
  <sodipodi:namedview
     id="base"
     pagecolor="#ffffff"
     bordercolor="#666666"
     borderopacity="1.0"
     inkscape:pageopacity="0.0"
     inkscape:pageshadow="2"
     inkscape:zoom="2.0775353"
     inkscape:cx="11.05319"
     inkscape:cy="53.52721"
     inkscape:document-units="mm"
     inkscape:current-layer="layer1"
     showgrid="true"
     fit-margin-top="0"
     fit-margin-left="0"
     fit-margin-right="0"
     fit-margin-bottom="0"
     inkscape:window-width="1918"
     inkscape:window-height="1038"
     inkscape:window-x="0"
     inkscape:window-y="20"
     inkscape:window-maximized="1">
    <inkscape:grid
       type="xygrid"
       id="grid2039"
       originx="-33.169168"
       originy="-234.76535" />
  </sodipodi:namedview>
  <metadata
     id="metadata1445">
    <rdf:RDF>
      <cc:Work
         rdf:about="">
        <dc:format>image/svg+xml</dc:format>
        <dc:type
           rdf:resource="http://purl.org/dc/dcmitype/StillImage" />
        <dc:title></dc:title>
      </cc:Work>
    </rdf:RDF>
  </metadata>
  <g
     inkscape:label="Layer 1"
     inkscape:groupmode="layer"
     id="layer1"
     transform="translate(-33.169168,-15.572287)">
    <path
       style="font-style:normal;font-variant:normal;font-weight:bold;font-stretch:normal;font-size:40px;line-height:125%;font-family:Anton;-inkscape-font-specification:'Anton Bold';text-align:start;letter-spacing:0px;word-spacing:0px;text-anchor:start;fill:#000000;fill-opacity:1;stroke:none;stroke-width:0.75303376px;stroke-linecap:butt;stroke-linejoin:miter;stroke-opacity:1"
       d="M 108.85742 25.314453 L 98.494141 28.089844 L 98.494141 53.964844 L 109.1875 51.099609 L 109.1875 46.068359 L 103.76562 47.521484 L 103.76562 41.587891 L 108.64648 40.279297 L 108.64648 35.400391 L 103.76562 36.707031 L 103.76562 31.677734 L 108.85742 30.314453 L 108.85742 25.314453 z M 96.443359 28.638672 L 86.082031 31.416016 L 86.082031 57.291016 L 96.775391 54.425781 L 96.775391 49.394531 L 91.353516 50.847656 L 91.353516 44.914062 L 96.232422 43.605469 L 96.232422 38.726562 L 91.353516 40.033203 L 91.353516 35.003906 L 96.443359 33.640625 L 96.443359 28.638672 z M 30.148438 32.134766 L 30.148438 150.63086 L 54.515625 157.16211 L 54.515625 38.664062 L 30.148438 32.134766 z M 81.357422 32.900391 C 80.87046 32.885285 80.312236 32.961368 79.679688 33.130859 L 71.726562 35.261719 L 71.726562 61.136719 L 76.96875 59.732422 L 76.96875 47.923828 C 77.711743 47.724744 78.222774 47.688973 78.503906 47.814453 C 78.785039 47.939933 78.925781 48.363025 78.925781 49.085938 L 78.925781 59.207031 L 83.986328 57.851562 L 84.046875 48.046875 C 84.046875 46.982587 83.865362 46.187765 83.503906 45.662109 C 83.162531 45.131073 82.601514 44.890255 81.818359 44.939453 C 82.762162 44.365268 83.42315 43.615003 83.804688 42.689453 C 84.186225 41.763904 84.376953 40.567468 84.376953 39.101562 C 84.376953 37.49509 84.256596 36.211511 84.015625 35.251953 C 83.774654 34.272314 83.304394 33.596598 82.601562 33.222656 C 82.260187 33.022954 81.844384 32.915496 81.357422 32.900391 z M 189.21875 34.414062 L 178.85742 37.189453 L 178.85742 63.064453 L 189.55078 60.199219 L 189.55078 55.169922 L 184.12891 56.621094 L 184.12891 50.6875 L 189.00781 49.380859 L 189.00781 44.5 L 184.12891 45.808594 L 184.12891 40.777344 L 189.21875 39.414062 L 189.21875 34.414062 z M 70.087891 35.701172 L 59.724609 38.478516 L 59.724609 64.351562 L 64.935547 62.957031 L 64.935547 51.208984 L 69.816406 49.900391 L 69.816406 44.931641 L 64.935547 46.238281 L 64.935547 42.111328 L 70.087891 40.732422 L 70.087891 35.701172 z M 78.601562 38.261719 C 78.717028 38.265922 78.816161 38.293036 78.896484 38.341797 C 79.057132 38.419237 79.16632 38.620079 79.226562 38.945312 C 79.286805 39.270546 79.318359 39.774281 79.318359 40.457031 C 79.318359 42.023341 78.955334 42.903952 78.232422 43.097656 L 76.998047 43.427734 L 76.998047 38.638672 L 78.203125 38.316406 C 78.353732 38.276051 78.486097 38.257516 78.601562 38.261719 z M 172.6875 38.859375 C 172.02483 38.866249 171.26555 38.984213 170.41211 39.212891 C 168.30361 39.77786 166.71663 40.814109 165.65234 42.324219 C 164.58806 43.834329 164.05664 45.784201 164.05664 48.173828 L 164.05664 59.318359 C 164.05664 61.989119 164.50847 63.867962 165.41211 64.951172 C 166.33583 66.00892 167.73209 66.287511 169.59961 65.787109 C 171.52738 65.270566 172.95323 64.084451 173.87695 62.230469 L 174.75 64.166016 L 176.82812 63.607422 L 176.82812 48.546875 L 170.50195 50.242188 L 170.50195 54.701172 L 171.88867 54.330078 L 171.88867 58.033203 C 171.88867 58.816358 171.7887 59.437154 171.58789 59.892578 C 171.38708 60.348003 171.03523 60.642827 170.5332 60.777344 C 170.03118 60.91186 169.67932 60.804843 169.47852 60.457031 C 169.27771 60.10922 169.17773 59.542921 169.17773 58.759766 L 169.17773 46.230469 C 169.17773 44.945291 169.67033 44.169902 170.6543 43.90625 C 171.09608 43.787875 171.39599 43.877451 171.55664 44.175781 C 171.73737 44.468731 171.82812 44.928273 171.82812 45.550781 L 171.82812 47.869141 L 176.88867 46.513672 C 176.88867 44.46542 176.70716 42.837313 176.3457 41.628906 C 175.98425 40.4205 175.33247 39.599781 174.38867 39.169922 C 173.91677 38.954992 173.35017 38.852501 172.6875 38.859375 z M 158.46484 42.871094 C 157.90195 42.877903 157.27482 42.974523 156.58203 43.160156 L 149.44141 45.072266 L 149.44141 70.945312 L 156.40039 69.082031 C 158.4888 68.522442 159.98503 67.478479 160.88867 65.951172 C 161.79231 64.423865 162.23297 62.388644 162.21289 59.84375 L 162.1543 47.75 C 162.13422 45.747291 161.662 44.358647 160.73828 43.582031 C 160.16096 43.096647 159.403 42.859745 158.46484 42.871094 z M 147.39062 45.621094 L 137.0293 48.398438 L 137.0293 74.271484 L 147.72266 71.40625 L 147.72266 66.376953 L 142.30078 67.830078 L 142.30078 61.896484 L 147.17969 60.587891 L 147.17969 55.708984 L 142.30078 57.015625 L 142.30078 51.986328 L 147.39062 50.621094 L 147.39062 45.621094 z M 156.33984 47.892578 C 156.58081 47.928415 156.74194 48.085544 156.82227 48.365234 C 156.92267 48.619464 156.97266 49.038748 156.97266 49.621094 L 156.97266 62.964844 C 156.97266 63.888565 156.50044 64.475625 155.55664 64.728516 L 154.6543 64.970703 L 154.6543 48.193359 L 155.22656 48.041016 C 155.72859 47.906499 156.09887 47.856742 156.33984 47.892578 z M 130.26758 50.210938 L 125.08594 51.597656 L 125.08594 77.472656 L 135.59961 74.65625 L 135.59961 70.257812 L 130.26758 71.685547 L 130.26758 50.210938 z M 123.52344 52.017578 L 118.40234 53.388672 L 117.01758 70.085938 L 115.63086 54.130859 L 110.8125 55.423828 L 109.36719 72.136719 L 107.91992 56.197266 L 102.85938 57.552734 L 105.63086 82.685547 L 111.95703 80.990234 L 113.19141 68.189453 L 114.48633 80.3125 L 120.69141 78.650391 L 123.52344 52.017578 z M 97.277344 59.050781 C 96.635382 59.061833 95.921827 59.171014 95.138672 59.380859 C 93.050258 59.940448 91.465228 60.93788 90.380859 62.373047 C 89.296491 63.788133 88.753906 65.610864 88.753906 67.839844 L 88.753906 80.160156 C 88.753906 82.46946 89.296491 84.120612 90.380859 85.115234 C 91.465228 86.089775 93.050258 86.29787 95.138672 85.738281 C 97.227085 85.178692 98.814069 84.120106 99.898438 82.564453 C 100.98281 81.008801 101.52539 79.067666 101.52539 76.738281 L 101.52539 64.417969 C 101.52539 62.188989 100.98281 60.65624 99.898438 59.822266 C 99.220707 59.288481 98.347279 59.032361 97.277344 59.050781 z M 86.673828 61.890625 L 81.673828 63.230469 L 81.673828 75.611328 L 79.294922 63.869141 L 73.962891 65.296875 L 73.962891 91.171875 L 79.023438 89.814453 L 79.023438 76.863281 L 81.613281 89.121094 L 86.673828 87.765625 L 86.673828 61.890625 z M 95.486328 64.082031 C 95.772481 64.07313 95.966841 64.19075 96.072266 64.433594 C 96.232913 64.731924 96.314453 65.160391 96.314453 65.722656 L 96.314453 78.375 C 96.314453 79.097912 96.232913 79.680337 96.072266 80.125 C 95.911618 80.569663 95.600533 80.85476 95.138672 80.978516 C 94.65673 81.107651 94.325259 81.004986 94.144531 80.671875 C 93.963803 80.338764 93.875 79.801587 93.875 79.058594 L 93.875 66.4375 C 93.875 65.132241 94.306443 64.364181 95.169922 64.132812 C 95.285387 64.101874 95.390944 64.084998 95.486328 64.082031 z M 72.466797 65.697266 L 67.255859 67.09375 L 64.845703 78.101562 L 64.845703 67.740234 L 59.724609 69.111328 L 59.724609 94.986328 L 64.876953 93.605469 L 64.876953 81.076172 L 67.707031 92.847656 L 73.068359 91.410156 L 69.574219 78.310547 L 72.466797 65.697266 z M 173.23047 69.572266 L 168.10938 70.945312 L 166.66406 80.097656 L 165.2168 71.71875 L 160.09766 73.091797 L 164.22266 89.335938 L 164.22266 97.859375 L 169.10352 96.552734 L 169.10352 88.027344 L 173.23047 69.572266 z M 154.92969 74.455078 C 154.31879 74.471926 153.65484 74.575892 152.93945 74.767578 C 150.75064 75.35407 149.14522 76.437906 148.12109 78.017578 C 147.09697 79.59725 146.58398 81.671832 146.58398 84.242188 L 146.58398 96.169922 C 146.58398 98.238255 147.14695 99.7142 148.27148 100.59766 C 149.4161 101.47573 150.93075 101.66203 152.81836 101.15625 C 157.17591 99.988646 159.35547 97.235912 159.35547 92.898438 L 159.35547 88.019531 L 154.14453 89.416016 L 154.14453 94.083984 C 154.14453 95.389243 153.74269 96.150008 152.93945 96.365234 C 152.53784 96.472848 152.23597 96.403657 152.03516 96.15625 C 151.83435 95.888762 151.73438 95.413219 151.73438 94.730469 L 151.73438 81.748047 C 151.73438 81.125539 151.81592 80.631918 151.97656 80.267578 C 152.15729 79.897858 152.47759 79.651099 152.93945 79.527344 C 153.38123 79.408969 153.69232 79.466512 153.87305 79.699219 C 154.05377 79.931925 154.14453 80.419116 154.14453 81.162109 L 154.14453 84.988281 L 159.29492 83.607422 L 159.29492 79.150391 C 159.29492 77.182462 158.71352 75.831738 157.54883 75.099609 C 156.8209 74.642029 155.94785 74.426998 154.92969 74.455078 z M 142.77734 77.732422 L 134.01172 80.080078 L 131.51172 106.625 L 136.54297 105.27734 L 136.84375 101.00977 L 139.97656 100.16992 L 140.33789 104.25977 L 145.24805 102.94531 L 142.77734 77.732422 z M 126.04297 82.195312 C 125.43207 82.212161 124.77007 82.316126 124.05469 82.507812 C 121.86587 83.094305 120.2585 84.17814 119.23438 85.757812 C 118.21025 87.337485 117.69727 89.412067 117.69727 91.982422 L 117.69727 103.91016 C 117.69727 105.97849 118.26024 107.45443 119.38477 108.33789 C 120.52938 109.21597 122.04599 109.40227 123.93359 108.89648 C 128.29115 107.72888 130.46875 104.97615 130.46875 100.63867 L 130.46875 95.759766 L 125.25781 97.15625 L 125.25781 101.82422 C 125.25781 103.12948 124.85792 103.89024 124.05469 104.10547 C 123.65307 104.21308 123.3512 104.14389 123.15039 103.89648 C 122.94958 103.629 122.84961 103.15345 122.84961 102.4707 L 122.84961 89.488281 C 122.84961 88.865773 122.9292 88.372152 123.08984 88.007812 C 123.27057 87.638092 123.59283 87.391333 124.05469 87.267578 C 124.49647 87.149204 124.80755 87.206746 124.98828 87.439453 C 125.16901 87.67216 125.25781 88.15935 125.25781 88.902344 L 125.25781 92.728516 L 130.41016 91.347656 L 130.41016 86.890625 C 130.41016 84.922697 129.8268 83.571972 128.66211 82.839844 C 127.93418 82.382263 127.06113 82.167232 126.04297 82.195312 z M 138.43945 83.292969 L 139.58398 96.148438 L 137.23438 96.777344 L 138.19922 83.357422 L 138.43945 83.292969 z M 111.57227 86.09375 C 110.9303 86.104802 110.2187 86.215935 109.43555 86.425781 C 107.34713 86.98537 105.76015 87.982802 104.67578 89.417969 C 103.59141 90.833055 103.04883 92.653833 103.04883 94.882812 L 103.04883 107.20312 C 103.04883 109.51243 103.59141 111.16358 104.67578 112.1582 C 105.76015 113.13274 107.34713 113.34084 109.43555 112.78125 C 111.52396 112.22166 113.10899 111.16503 114.19336 109.60938 C 115.27773 108.05372 115.82031 106.11063 115.82031 103.78125 L 115.82031 91.460938 C 115.82031 89.231958 115.27773 87.701162 114.19336 86.867188 C 113.51563 86.333403 112.6422 86.07533 111.57227 86.09375 z M 101.79102 88.683594 L 96.851562 90.007812 L 95.166016 108.08008 L 93.267578 90.96875 L 88.328125 92.291016 L 91.519531 117.33984 L 98.599609 115.44336 L 101.79102 88.683594 z M 109.78125 91.125 C 110.0674 91.116099 110.26372 91.233719 110.36914 91.476562 C 110.52979 91.774893 110.60938 92.205313 110.60938 92.767578 L 110.60938 105.41797 C 110.60938 106.14088 110.52979 106.72526 110.36914 107.16992 C 110.20849 107.61459 109.89741 107.89773 109.43555 108.02148 C 108.95361 108.15062 108.62213 108.04991 108.44141 107.7168 C 108.26068 107.38369 108.16992 106.84456 108.16992 106.10156 L 108.16992 93.480469 C 108.16992 92.17521 108.60137 91.40715 109.46484 91.175781 C 109.58031 91.144842 109.68587 91.127967 109.78125 91.125 z M 83.337891 93.875 C 82.774998 93.881809 82.147869 93.97843 81.455078 94.164062 L 74.316406 96.076172 L 74.316406 121.95117 L 81.273438 120.08594 C 83.361851 119.52635 84.858078 118.48434 85.761719 116.95703 C 86.665359 115.42972 87.107972 113.39255 87.087891 110.84766 L 87.027344 98.755859 C 87.007263 96.75315 86.53505 95.362553 85.611328 94.585938 C 85.034002 94.100553 84.276045 93.863652 83.337891 93.875 z M 70.298828 97.152344 L 61.533203 99.501953 L 59.033203 126.04492 L 64.0625 124.69727 L 64.363281 120.42969 L 67.496094 119.5918 L 67.857422 123.68164 L 72.767578 122.36523 L 70.298828 97.152344 z M 81.212891 98.896484 C 81.453861 98.932321 81.614989 99.091403 81.695312 99.371094 C 81.795717 99.625323 81.845703 100.04265 81.845703 100.625 L 81.845703 113.96875 C 81.845703 114.89247 81.37349 115.48148 80.429688 115.73438 L 79.527344 115.97656 L 79.527344 99.199219 L 80.099609 99.044922 C 80.601632 98.910405 80.97192 98.860648 81.212891 98.896484 z M 65.960938 102.71289 L 67.105469 115.57031 L 64.755859 116.19922 L 65.71875 102.77734 L 65.960938 102.71289 z M 126.5293 113.24414 C 125.92028 113.21813 125.22875 113.30975 124.45312 113.51758 L 117.61523 115.34961 L 117.61523 141.22266 L 122.70508 139.85938 L 122.70508 129.61719 L 124.81445 129.05273 C 126.84262 128.50929 128.24809 127.47995 129.03125 125.96484 C 129.81441 124.44974 130.20508 122.40825 130.20508 119.83789 C 130.20508 117.26754 129.76442 115.43625 128.88086 114.34766 C 128.32863 113.65474 127.54432 113.2875 126.5293 113.24414 z M 115.60938 115.88672 L 110.57812 117.23438 L 110.57812 135.9707 C 110.57812 136.8141 110.49854 137.48728 110.33789 137.99219 C 110.17724 138.47701 109.8346 138.78979 109.3125 138.92969 C 108.7904 139.06958 108.44971 138.93053 108.28906 138.51172 C 108.12842 138.0929 108.04883 137.47175 108.04883 136.64844 L 108.04883 117.91211 L 103.01758 119.25977 L 103.01758 138.20703 C 103.01758 140.57658 103.53056 142.22581 104.55469 143.15625 C 105.59889 144.08131 107.18392 144.2598 109.3125 143.68945 C 111.44108 143.1191 113.01884 142.09255 114.04297 140.61328 C 115.08718 139.12863 115.60937 137.20158 115.60938 134.83203 L 115.60938 115.88672 z M 123.77539 118.44336 C 124.22721 118.41266 124.54193 118.5522 124.72266 118.86523 C 124.96363 119.28261 125.08594 120.03477 125.08594 121.11914 C 125.08594 121.92238 125.034 122.55866 124.93359 123.02734 C 124.85327 123.47057 124.66254 123.85215 124.36133 124.17383 C 124.0802 124.47005 123.62837 124.70234 123.00586 124.86914 L 122.70508 124.94922 L 122.70508 118.68359 L 123.27734 118.53125 C 123.45807 118.48282 123.62478 118.45359 123.77539 118.44336 z M 96.982422 120.87695 C 96.340461 120.88801 95.628858 120.99914 94.845703 121.20898 C 92.75729 121.76857 91.170306 122.766 90.085938 124.20117 C 89.001569 125.61626 88.458984 127.43899 88.458984 129.66797 L 88.458984 141.98633 C 88.458984 144.29563 89.001569 145.94874 90.085938 146.94336 C 91.170306 147.9179 92.75729 148.12404 94.845703 147.56445 C 96.934117 147.00486 98.519147 145.94823 99.603516 144.39258 C 100.68788 142.83693 101.23047 140.89384 101.23047 138.56445 L 101.23047 126.24609 C 101.23047 124.01711 100.68788 122.48437 99.603516 121.65039 C 98.925785 121.11661 98.052357 120.85853 96.982422 120.87695 z M 83.947266 124.58789 C 83.460304 124.57279 82.900126 124.65082 82.267578 124.82031 L 74.316406 126.95117 L 74.316406 152.82617 L 79.556641 151.41992 L 79.556641 139.61328 C 80.299635 139.4142 80.812617 139.37647 81.09375 139.50195 C 81.374883 139.62743 81.513672 140.05248 81.513672 140.77539 L 81.513672 150.89648 L 86.574219 149.54102 L 86.634766 139.73438 C 86.634766 138.67009 86.455206 137.87527 86.09375 137.34961 C 85.752375 136.81857 85.189405 136.57775 84.40625 136.62695 C 85.350052 136.05277 86.012994 135.3025 86.394531 134.37695 C 86.776068 133.4514 86.966797 132.25692 86.966797 130.79102 C 86.966797 129.18454 86.84644 127.90096 86.605469 126.94141 C 86.364498 125.96177 85.892285 125.2841 85.189453 124.91016 C 84.848078 124.71045 84.434227 124.603 83.947266 124.58789 z M 95.191406 125.91016 C 95.477559 125.90125 95.673872 126.01692 95.779297 126.25977 C 95.939944 126.5581 96.019531 126.98852 96.019531 127.55078 L 96.019531 140.20312 C 96.019531 140.92604 95.939944 141.50846 95.779297 141.95312 C 95.61865 142.39779 95.307564 142.68289 94.845703 142.80664 C 94.363762 142.93578 94.032291 142.83311 93.851562 142.5 C 93.670834 142.16689 93.580078 141.62971 93.580078 140.88672 L 93.580078 128.26562 C 93.580078 126.96037 94.011521 126.19231 94.875 125.96094 C 94.990465 125.93 95.096022 125.91312 95.191406 125.91016 z M 68.144531 128.61914 C 67.481862 128.62601 66.724532 128.74398 65.871094 128.97266 C 63.762599 129.53763 62.175616 130.57583 61.111328 132.08594 C 60.04704 133.59605 59.513672 135.54592 59.513672 137.93555 L 59.513672 149.08008 C 59.513672 151.75084 59.9655 153.62773 60.869141 154.71094 C 61.792862 155.76869 63.189117 156.04728 65.056641 155.54688 C 66.984407 155.03033 68.410263 153.84617 69.333984 151.99219 L 70.207031 153.92578 L 72.285156 153.36914 L 72.285156 138.30859 L 65.960938 140.00391 L 65.960938 144.46094 L 67.345703 144.08984 L 67.345703 147.79492 C 67.345703 148.57808 67.245731 149.19692 67.044922 149.65234 C 66.844113 150.10777 66.492257 150.40259 65.990234 150.53711 C 65.488212 150.67163 65.136356 150.56461 64.935547 150.2168 C 64.734738 149.86899 64.634766 149.30464 64.634766 148.52148 L 64.634766 135.99023 C 64.634766 134.70506 65.127364 133.93162 66.111328 133.66797 C 66.553108 133.54959 66.854978 133.63917 67.015625 133.9375 C 67.196353 134.23045 67.285156 134.68804 67.285156 135.31055 L 67.285156 137.63086 L 72.345703 136.27344 C 72.345703 134.22519 72.166144 132.59708 71.804688 131.38867 C 71.443231 130.18027 70.789505 129.3615 69.845703 128.93164 C 69.373802 128.71671 68.807201 128.61227 68.144531 128.61914 z M 81.191406 129.95117 C 81.306871 129.95537 81.404051 129.98054 81.484375 130.0293 C 81.645022 130.10674 81.756164 130.30953 81.816406 130.63477 C 81.876649 130.96 81.90625 131.46373 81.90625 132.14648 C 81.90625 133.71279 81.545178 134.59341 80.822266 134.78711 L 79.585938 135.11719 L 79.585938 130.32812 L 80.791016 130.00586 C 80.941622 129.9655 81.075941 129.94697 81.191406 129.95117 z "
       transform="matrix(0.26458333,0,0,0.26458333,33.169168,15.572287)"
       id="path2928" />
  </g>
</svg>
